{
  "name": "HelloDesigner-Demo",
  "version": "1.0.0",
  "description": "最简单的入门 Demo，包含基本的文本和按钮控件使用方法",
  "entry": "home_page",
  "awtkRoot": "${AWTK_SDK_PATH}/awtk",
  "awtkMvvmRoot": "${AWTK_SDK_PATH}/awtk-mvvm",
  "type": "PROJECT_WIDGETS_APPLICATION",
  "assets": {
    "activedTheme": "default",
    "outputDir": "res",
    "loadFrom": "any",
    "const": "resource_data",
    "screenDPR": "x1",
    "defaultLanguage": "zh",
    "defaultCountry": "CN",
    "themes": {
      "default": {
        "activedSystemBar": "",
        "activedBottomSystemBar": "",
        "packaged": true,
        "fonts": {
          "default": {
            "18": " !\"#$%&'()*+,-./0123456789:;<=>?@ABCDEFGHIJKLMNOPQRSTUVWXYZ[\\]^_`abcdefghijklmnopqrstuvwxyz{|}~",
            "text": " !\"#$%&'()*+,-./0123456789:;<=>?@ABCDEFGHIJKLMNOPQRSTUVWXYZ[\\]^_`abcdefghijklmnopqrstuvwxyz{|}~"
          }
        },
        "lcd": {
          "width": "800",
          "height": "480",
          "colorDepth": "16bit",
          "colorFormat": "BGR(A)"
        }
      }
    }
  },
  "creator": {
    "name": "AWTK Designer",
    "version": "2.0.21"
  },
  "dependencies": {
    "awtk": ">=2112"
  }
}